{
  "model": "Students",
  "settings": {
    "i18n": {
      "el": {
        "Graduation Information": "Στοιχεία ορκωμοσίας",
        "Graduation Year": "Ακαδημαϊκό έτος ορκωμοσίας",
        "Graduation Period": "Ακαδημαϊκή περίοδος ορκωμοσίας",
        "Graduation Date": "Ημερομηνία ορκωμοσίας",
        "Declaration Date": "Ημερομηνία έγκρισης",
        "Graduation Grade": "Βαθμός διπλώματος",
        "Graduation Grade Scale": "Κλίμακα βαθμού διπλώματος",
        "Graduation Rank By Inscription Year": "Ποσοστιαία βαθμολογία ανά έτος εισαγωγής",
        "Graduation Rank By Graduation Year": "Ποσοστιαία βαθμολογία ανά έτος ορκωμοσίας",
        "Graduation Grade Written In Words": "Βαθμός διπλώματος ολογράφως",
        "Graduation Number": "Αριθμός διπλώματος",
        "Last Obligation Date": "Ημερομηνία τελευταίας υποχρέωσης",
        "Calculate": "Υπολογισμός",
        "GraduationGradeWrittenInWordsInfo": "Προτείνεται να χρησιμοποιηθεί η τιμή (σε πεζά ή κεφαλαία): ",
        "Graduation Type": "Τύπος ορκωμοσίας",
        "GraduationYearDifferentFromEvent": "Το έτος είναι διαφορετικό από αυτό του γεγονότος ορκωμοσίας",
        "GraduationPeriodDifferentFromEvent": "Η περίοδος είναι διαφορετική από αυτή του γεγονότος ορκωμοσίας"
      },
      "en": {
        "GraduationGradeWrittenInWordsInfo": "It is strongly recommended to use the value (capital or lower case): ",
        "GraduationYearDifferentFromEvent": "The year is different from the graduation's event",
        "GraduationPeriodDifferentFromEvent": "The period is different from the graduation's event"
      }
    }
  },
  "components": [
    {
      "legend": "Graduation Information",
      "key": "fieldset",
      "type": "fieldset",
      "input": false,
      "components": [
        {
          "columns": [
            {
              "components": [
                {
                  "label": "Graduation Title",
                  "key": "graduationTitle",
                  "labelPosition": "top",
                  "widget": {
                    "type": "input"
                  },
                  "validate": {
                    "required": false
                  },
                  "type": "textfield",
                  "input": true,
                  "disabled": false
                }
              ],
              "width": 6,
              "offset": 0,
              "push": 0,
              "pull": 0
            },
            {
              "components": [
                {
                  "label": "Graduation Year",
                  "labelPosition": "top",
                  "key": "graduationYear",
                  "validate": {
                    "required": true
                  },
                  "type": "select",
                  "searchEnabled": false,
                  "dataSrc": "url",
                  "data": {
                    "url": "AcademicYears/?$top={{limit}}&$skip={{skip}}&$orderby=id desc",
                    "headers": []
                  },
                  "limit": 20,
                  "template": "{{ item.alternateName }}",
                  "input": true,
                  "lazyLoad": true,
                  "selectValues": "value",
                  "widget": "choicesjs",
                  "disabled": false
                },
                {
                  "label": "HTML",
                  "tag": "p",
                  "className": "text-warning",
                  "content": "{{instance.t('GraduationYearDifferentFromEvent')}}({{data?.graduationEvent?.graduationYear?.name}})",
                  "refreshOnChange": false,
                  "tableView": false,
                  "key": "differentYearFromEvent",
                  "type": "htmlelement",
                  "customConditional": "show = !!(data.graduationYear && data.graduationEvent && data.graduationEvent.graduationYear && data.graduationEvent.graduationYear.id !== data.graduationYear.id)",
                  "input": false
                }
              ],
              "width": 3,
              "offset": 0,
              "push": 0,
              "pull": 0
            },
            {
              "components": [
                {
                  "label": "Graduation Period",
                  "labelPosition": "top",
                  "widget": "choicesjs",
                  "dataSrc": "url",
                  "data": {
                    "url": "AcademicPeriods",
                    "headers": []
                  },
                  "template": "{{ item.name }}",
                  "selectValues": "value",
                  "key": "graduationPeriod",
                  "validate": {
                    "required": true
                  },
                  "type": "select",
                  "input": true,
                  "searchEnabled": false,
                  "disabled": false
                },
                {
                  "label": "HTML",
                  "tag": "p",
                  "className": "text-warning",
                  "content": "{{instance.t('GraduationPeriodDifferentFromEvent')}}({{data?.graduationEvent?.graduationPeriod?.name}})",
                  "refreshOnChange": false,
                  "tableView": false,
                  "key": "differentYearFromPeriod",
                  "type": "htmlelement",
                  "customConditional": "show = !!(data.graduationPeriod && data.graduationEvent && data.graduationEvent.graduationPeriod && data.graduationEvent.graduationPeriod.id !== data.graduationPeriod.id)",
                  "input": false
                }
              ],
              "width": 3,
              "offset": 0,
              "push": 0,
              "pull": 0
            }
          ],
          "customClass": "text-dark",
          "type": "columns",
          "input": false
        },
        {
          "columns": [
            {
              "components": [
                {
                  "label": "Graduation Date",
                  "labelPosition": "top",
                  "enableTime": false,
                  "widget": {
                    "type": "input"
                  },
                  "key": "graduationDate",
                  "validate": {
                    "required": true
                  },
                  "type": "datetime",
                  "format": "dd/MM/yyyy",
                  "input": true
                }
              ],
              "width": 4,
              "offset": 0,
              "push": 0,
              "pull": 0
            },
            {
              "components": [
                {
                  "label": "Declaration Date",
                  "labelPosition": "top",
                  "enableTime": false,
                  "widget": {
                    "type": "input"
                  },
                  "key": "declaredDate",
                  "validate": {
                    "required": true
                  },
                  "type": "datetime",
                  "format": "dd/MM/yyyy",
                  "input": true
                }
              ],
              "width": 4,
              "offset": 0,
              "push": 0,
              "pull": 0
            },
            {
              "components": [
                {
                  "label": "Graduation Number",
                  "key": "graduationNumber",
                  "labelPosition": "top",
                  "widget": {
                    "type": "input"
                  },
                  "validate": {
                    "required": false
                  },
                  "type": "number",
                  "input": true
                }
              ],
              "width": 4,
              "offset": 0,
              "push": 0,
              "pull": 0
            }
          ],
          "customClass": "text-dark",
          "hideLabel": true,
          "type": "columns",
          "input": false
        },
        {
          "columns": [
            {
              "components": [
                {
                  "label": "Graduation Grade",
                  "key": "graduationGradeAdjusted",
                  "labelPosition": "top",
                  "widget": {
                    "type": "input"
                  },
                  "validate": {
                    "required": false
                  },
                  "type": "textfield",
                  "input": true,
                  "disabled": true
                }
              ],
              "width": 4,
              "offset": 0,
              "push": 0,
              "pull": 0
            },
            {
              "components": [
                {
                  "label": "Graduation Grade Scale",
                  "key": "graduationGradeScale.name",
                  "labelPosition": "top",
                  "widget": {
                    "type": "input"
                  },
                  "validate": {
                    "required": false
                  },
                  "type": "textfield",
                  "input": true,
                  "disabled": true
                }
              ],
              "width": 4,
              "offset": 0,
              "push": 0,
              "pull": 0
            },
            {
              "components": [
                {
                  "label": "Graduation Type",
                  "labelPosition": "top",
                  "key": "graduationType",
                  "validate": {
                    "required": true
                  },
                  "type": "select",
                  "searchEnabled": false,
                  "dataSrc": "url",
                  "data": {
                    "url": "GraduationTypes?$filter=identifier ne null",
                    "headers": []
                  },
                  "template": "{{ item.name }}",
                  "dataType": "object",
                  "idPath": "identifier",
                  "input": true,
                  "lazyLoad": false,
                  "selectValues": "value",
                  "widget": "choicesjs",
                  "disabled": false
                }
              ],
              "width": 4,
              "offset": 0,
              "push": 0,
              "pull": 0
            }
          ],
          "customClass": "text-dark",
          "hideLabel": true,
          "type": "columns",
          "input": false
        },
        {
          "columns": [
            {
              "components": [
                {
                  "label": "Graduation Rank By Inscription Year",
                  "key": "graduationRankByInscriptionYear",
                  "labelPosition": "top",
                  "widget": {
                    "type": "input"
                  },
                  "validate": {
                    "required": false
                  },
                  "type": "number",
                  "input": true,
                  "disabled": true
                }
              ],
              "width": 4,
              "offset": 0,
              "push": 0,
              "pull": 0
            },
            {
              "components": [
                {
                  "label": "Graduation Rank By Graduation Year",
                  "key": "graduationRankByGraduationYear",
                  "labelPosition": "top",
                  "widget": {
                    "type": "input"
                  },
                  "validate": {
                    "required": false
                  },
                  "type": "number",
                  "input": true,
                  "disabled": true
                }
              ],
              "width": 4,
              "offset": 0,
              "push": 0,
              "pull": 0
            },
            {
              "components": [
                {
                  "label": "Last Obligation Date",
                  "labelPosition": "top",
                  "enableTime": false,
                  "widget": {
                    "type": "input"
                  },
                  "key": "lastObligationDate",
                  "validate": {
                    "required": false
                  },
                  "type": "datetime",
                  "format": "dd/MM/yyyy",
                  "input": true
                }
              ],
              "width": 4,
              "offset": 0,
              "push": 0,
              "pull": 0
            },
            {
              "components": [
                {
                  "label": "Graduation Grade Written In Words",
                  "key": "graduationGradeWrittenInWords",
                  "labelPosition": "top",
                  "widget": {
                    "type": "input"
                  },
                  "validate": {
                    "required": false
                  },
                  "type": "textfield",
                  "input": true,
                  "disabled": false
                },
                {
                  "label": "HTML",
                  "tag": "p",
                  "className": "font-weight-normal ml-2",
                  "content": "{{instance.t('GraduationGradeWrittenInWordsInfo')}}<b>{{data.validateGradeWrittenInWords}}</b>",
                  "refreshOnChange": false,
                  "tableView": false,
                  "key": "validateGradeWrittenInWords",
                  "type": "htmlelement",
                  "customConditional": "show = !!data.validateGradeWrittenInWords",
                  "input": false
                },
                {
                  "label": "Calculate",
                  "action": "event",
                  "event": "calculateGradeWrittenInWords",
                  "showValidations": false,
                  "theme": "primary",
                  "tableView": false,
                  "key": "submit1",
                  "type": "button",
                  "input": true
                }
              ],
              "width": 12,
              "offset": 0,
              "push": 0,
              "pull": 0
            }
          ],
          "customClass": "text-dark",
          "hideLabel": true,
          "type": "columns",
          "input": false
        }
      ]
    }
  ]
}
