{
  "model": "Theses",
  "settings": {
    "i18n": {
      "el": {
        "Set the name of this thesis": "Ορίστε την ονομασία της πτυχιακής εργασίας αυτής",
        "Select one the available thesis types.": "Επιλέξτε έναν από τους διαθέσιμους τύπους εργασίας",
        "Select the department that offers this thesis. It defaults to your current department.": "Ορίστε το τμήμα που προσφέρει την εργασία. Ως προεπιλογή ορίζεται το τρέχον σας τμήμα.",
        "Set the status of the thesis.": "Ορίστε την κατάσταση της εργασίας.",
        "Select the supervising instructor of this thesis": "Επιλέξτε τον επιβλέποντα καθηγητή της εργασίας αυτής",
        "Select the full date this thesis was assigned to the student(s).": "Επιλέξτε την πλήρη ημερομηνία που ανατέθηκαν οι φοιτητές",
        "Select the full date this thesis was delivered.": "Επιλέξτε την πλήρη ημερομηνία που παραδόθηκε η εργασία",
        "Set the full date of the thesis examination": "Ορίστε την ημερομηνία εξέτασης της εργασίας",
        "Set the grade of the thesis": "Ορίστε τον μορφοποιημένο βαθμό της εργασίας",
        "Set the number of ECTS the student will receive for completing the thesis. The value must be less than 300.": "Ορίστε τον αριθμό ECTS που θα πιστωθούν στον φοιτητή για την ολοκλήρωση της. Η τιμή του πρέπει να είναι μικρότερη του 300",
        "Set the number of units the student will receive for completing the thesis. The value must be less than 100.": "Ορίστε τον αριθμό διδακτικών μονάδων που θα πιστωθούν στον φοιτητή για την ολοκλήρωση της. Η τιμή του πρέπει να είναι μικρότερη του 100",
        "Set the coefficient that the grade of the thesis counts towards the degree grade. The value has to be less than 100.": "Ορίστε τον συντελεστή του βαθμού κατά τον οποίο θα υπολογιστεί η εργασία στον βαθμό του διπλώματος. Η τιμή του πρέπει να είναι μικρότερη του 100",
        "Set the grade scale of this thesis. After creation, field will be editable as long as thesis is not completed": "Ορίστε την κλίμακα βαθμολογίας της εργασίας. Μετά την δημιουργία, θα μπορείτε να επεξεργαστείτε το πεδίο αυτό, όσο η εργασία δεν έχει ολοκληρωθεί",
        "Select the academic period this thesis was started by the assigned student(s).": "Επιλέξτε την ακαδημαϊκή περίοδο την οποία ξεκίνησαν οι ανατιθέντες φοιτητές την εκπόνηση της",
        "Select the academic year this thesis was started by the assigned student(s).": "Επιλέξτε το ακαδημαϊκό έτος το οποία ξεκίνησαν οι ανατιθέντες φοιτητές την εκπόνηση της",
        "Units": "Διδακτικές Μονάδες",
        "Set the thesis subject": "Ορίστε το γνωστικό αντικείμενο της εργασίας",
        "Thesis subject": "Γνωστικό αντικείμενο εργασίας"
      }
    }
  },
  "components": [
      {
          "legend": "Theses Information",
          "key": "fieldSet",
          "type": "fieldset",
          "input": false,
          "label": "Theses Information",
          "components": [
              {
                  "columns": [
                      {
                          "components": [
                              {
                                  "label": "Theses Name",
                                  "labelPosition": "top",
                                  "widget": {
                                      "type": "input"
                                  },
                                  "validate": {
                                      "required": true
                                  },
                                  "key": "name",
                                  "type": "textarea",
                                  "input": true,
                                    "description": "Set the name of this thesis"
                                }
                            ],
                            "width": 12,
                            "offset": 0,
                            "push": 0,
                            "pull": 0
                        }
                    ],
                    "customClass": "text-dark",
                    "hideLabel": true,
                    "type": "columns",
                    "input": false
                },
              {
                "columns": [
                  {
                    "components": [
                      {
                        "type": "select",
                        "label": "Thesis Type",
                        "key": "type",
                        "input": true,
                        "dataSrc": "url",
                        "data": {
                          "url": "ThesisTypes",
                          "headers": []
                        },
                        "template": "<span class='col-4 text-truncate'>{{ item.name }}</span>",
                        "selectValues": "value",
                        "validate": {
                          "required": true
                        },
                        "searchEnabled": false,
                        "description": "Select one the available thesis types."
                    }
                  ],
                  "width": 4,
                  "offset": 0,
                  "push": 0,
                  "pull": 0
                },
                {
                  "components": [
                    {
                      "label": "Department",
                      "labelPosition": "top",
                      "widget": "choicesjs",
                      "key": "department",
                      "dataSrc": "url",
                      "data": {
                        "url": "LocalDepartments/?$select=id,name&$top=-1&$orderby=name",
                        "headers": []
                      },
                      "template": "<span class='d-block pr-5 text-truncate'>{{ item.name }}</span>",
                      "selectValues": "value",
                      "type": "select",
                      "input": true,
                      "disabled": true,
                      "lazyLoad": false,
                      "searchEnabled": true,
                      "searchFields":[ "value.id", "value.name" ],
                        "description": "Select the department that offers this thesis. It defaults to your current department."
                    }
                  ],
                  "width": 6,
                  "offset": 0,
                  "push": 0,
                  "pull": 0
                },
                {
                  "components": [
                    {
                      "label": "Thesis subject",
                      "widget": "choicesjs",
                      "dataSrc": "url",
                      "defaultValue": "",
                      "labelPosition": "top",
                      "customConditional": "show = !!(data.department && data.department.id)",
                      "data": {
                        "values": [],
                        "url":  "ThesisSubjects?$top=-1&$filter=department eq '{{data.department.id}}'",
                        "headers": []
                      },
                      "lazyLoad": true,
                      "searchEnabled": false,
                      "validate": {
                        "required": false
                      },
                      "valueProperty": "id",
                      "template": "{{ item.name }}",
                      "key": "subject",
                      "type": "select",
                      "selectValues": "value",
                      "input": true,
                      "description": "Set the thesis subject"
                    }
                  ],
                  "width": 6
                },
                {
                  "components": [
                    {
                      "label": "Overseer",
                      "widget": "choicesjs",
                      "dataSrc": "url",
                      "defaultValue": "",
                      "labelPosition": "top",
                      "data": {
                        "values": [],
                        "url": "/Instructors?$top={{limit}}&$skip={{skip}}&$select=id,familyName,givenName,department&$expand=department&$filter=indexof(familyName, '{{encodeURIComponent(search||'')}}') ge 0",
                        "headers": []
                      },
                      "lazyLoad": true,
                      "searchField": "search",
                      "searchEnabled": true,
                      "selectThreshold": 1,
                      "limit": 20,
                      "validate": {
                        "required": true
                      },
                      "dataType": "object",
                      "idPath": "id",
                      "template": "{{ item.familyName }} {{ item.givenName }} - {{ item.department.name }}",
                      "key": "instructor",
                      "type": "select",
                      "selectValues": "value",
                      "input": true,
                        "description": "Select the supervising instructor of this thesis"
                    }
                  ],
                  "width": 6
                },
                {
                  "components": [
                    {
                      "label": "Thesis Status",
                      "widget": "choicesjs",
                      "dataSrc": "url",
                      "data": {
                        "url": "ThesisStatuses",
                        "headers": []
                      },
                      "template": "<span class='col-4 text-truncate'>{{ item.name }}</span>",
                      "selectValues": "value",
                      "key": "status.alternateName",
                      "searchEnabled": false,
                      "type": "select",
                      "hidden": true,
                      "input": true,
                      "validate": {
                        "required": true
                      },
                        "description": "Select the status of the thesis."
                    }
                  ],
                  "width": 3,
                  "offset": 0,
                  "push": 0,
                  "pull": 0
                }
              ],
              "customClass": "text-dark",
              "type": "columns",
              "input": false
            },
            {
              "columns": [
                {
                  "components": [
                    {
                      "type": "datetime",
                      "format": "dd/MM/yyyy",
                      "label": "Assigned Date",
                      "labelPosition": "top",
                      "key": "startDate",
                      "enableTime": false,
                      "input": true,
                        "description": "Select the full date this thesis was assigned to the student(s)."
                      }
                    ],
                    "width": 3,
                    "offset": 0,
                    "push": 0,
                    "pull": 0
                  },
                  {
                    "components": [
                      {
                        "label": "Period",
                        "labelPosition": "top",
                        "widget": "choicesjs",
                        "dataSrc": "url",
                        "data": {
                          "url": "AcademicPeriods/?$select=id,name",
                          "headers": []
                        },
                        "searchFields": ["id", "name"],
                        "template": "<span class='d-block pr-5 text-truncate'>{{ item.name }}</span>",
                        "selectValues": "value",
                        "key": "startPeriod",
                        "type": "select",
                        "input": true,
                        "validate": {
                          "required": false
                        },
                        "description": "Select the academic period this thesis was started by the assigned student(s)."
                      }
                    ],
                    "width": 2
                  },
                  {
                    "components": [
                      {
                        "label": "Academic Year",
                        "labelPosition": "top",
                        "widget": "choicesjs",
                        "dataSrc": "url",
                        "data": {
                          "url": "AcademicYears/?$select=id,name&$top=-1",
                          "headers": []
                        },
                        "searchFields": ["id", "name"],
                        "template": "<span class='d-block pr-5 text-truncate'>{{ item.name }}</span>",
                        "selectValues": "value",
                        "key": "startYear",
                        "type": "select",
                        "input": true,
                        "validate": {
                          "required": false
                        },
                        "description": "Select the academic year this thesis was started by the assigned student(s)."
                      }
                    ],
                    "width": 3
                  }
                ],
                "customClass": "text-dark",
                "type": "columns",
                "input": false
              },
              {
                "columns": [
                  {
                    "components": [
                      {
                        "label": "Grade Scale",
                        "labelPosition": "top",
                        "widget": "choicesjs",
                        "dataSrc": "url",
                        "data": {
                          "url": "GradeScales/?$select=id,name",
                          "headers": []
                        },
                        "template": "<span class='d-block pr-5 text-truncate'>{{ item.name }}</span>",
                        "searchFields": ["id", "name"],
                        "selectValues": "value",
                        "validate": {
                          "required": true
                        },
                        "key": "gradeScale",
                        "lazyLoad": false,
                        "type": "select",
                        "input": true,
                        "description": "Set the grade scale of this thesis. After creation, field will be editable as long as thesis is not completed"
                      }
                    ],
                    "width": 2
                  },
                  {
                    "components": [
                      {
                        "label": "Units",
                        "labelPosition": "top",
                        "widget": {
                          "type": "input"
                        },
                        "validate": {
                          "required": true,
                          "integer": false,
                          "min": 0,
                          "max": 100
                        },
                        "type": "number",
                        "input": true,
                        "key": "units",
                        "description": "Set the number of units the student will receive for completing the thesis. The value must be less than 100."
                      }
                    ],
                    "width": 2,
                    "offset": 0,
                    "push": 0,
                    "pull": 0
                  },{
                    "components": [
                      {
                        "label": "ECTS",
                        "labelPosition": "top",
                        "widget": {
                          "type": "input"
                        },
                        "validate": {
                          "required": true,
                          "integer": false,
                          "min": 0,
                          "max": 300
                        },
                        "type": "number",
                        "input": true,
                        "key": "ects",
                        "description": "Set the number of ECTS the student will receive for completing the thesis. The value must be less than 300."
                      }
                    ],
                    "width": 2,
                    "offset": 0,
                    "push": 0,
                    "pull": 0
                  },
                  {
                    "components": [
                      {
                        "label": "Coefficient",
                        "labelPosition": "top",
                        "widget": {
                          "type": "input"
                        },
                        "validate": {
                          "required": true,
                          "integer": false,
                          "min": 0,
                          "max": 100
                        },
                        "type": "number",
                        "input": true,
                        "key": "coefficient",
                        "description": "Set the coefficient that the grade of the thesis counts towards the degree grade. The value has to be less than 100."
                    }
                  ],
                  "width": 2,
                  "offset": 0,
                  "push": 0,
                  "pull": 0
                }
              ],
              "customClass": "text-dark",
              "type": "columns",
              "input": false
            },
            {
              "columns": [
                {
                  "components": [
                    {
                      "label": "Notes",
                      "labelPosition": "top",
                      "widget": {
                        "type": "input"
                      },
                      "validate": {
                        "required": false
                      },
                      "key": "notes",
                      "type": "textarea",
                      "input": true
                    }
                  ],
                  "width": 12,
                  "offset": 0,
                  "push": 0,
                  "pull": 0
                }
              ],
              "customClass": "text-dark",
              "hideLabel": true,
              "type": "columns",
              "input": false
            }

          ]
      },
      {
          "type": "button",
          "label": "Submit",
          "key": "submit",
          "disableOnInvalid": true,
          "input": true
      }
  ]
}
