{
  "model": "StudentDeclareActions",
  "title": "Student Declare",
  "settings": {
    "i18n": {
      "el": {
        "Student Declare": "Στοιχεία ανακήρυξης",
        "Notes": "Σχόλια",
        "Declared Date": "Ημερομηνία έγκρισης",
        "Declared Year": "Ακαδ.έτος ανακήρυξης",
        "Declared Period": "Περίοδος ανακήρυξης",
        "Graduation Grade" : "Βαθμός διπλώματος"
      }
    }
  },
  "components": [
    {
      "type": "fieldset",
      "components": [
        {
          "label": "HTML",
          "tag": "h5",
          "className": "font-weight-normal",
          "content": "{{instance.t(form.title)}}",
          "refreshOnChange": false,
          "tableView": false,
          "key": "subtitle",
          "type": "htmlelement",
          "input": false
        },
        {
          "columns": [
            {
              "components": [
                {
                  "label": "Declared Year",
                  "labelPosition": "top",
                  "key": "declaredYear.alternateName",
                  "type": "select",
                  "searchEnabled": true,
                  "dataSrc": "url",
                  "data": {
                    "url": "AcademicYears?$top={{limit}}&$skip={{skip}}&$orderby=id desc",
                    "headers": []
                  },
                  "limit": 20,
                  "template": "{{ item.alternateName }}",
                  "input": true,
                  "lazyLoad": true,
                  "selectValues": "value",
                  "disabled": true,
                  "widget": "choicesjs",
                  "validate": {
                    "required": false
                  }
                }
              ],
              "width": 4
            },
            {
              "components": [
                {
                  "label": "Declared Period",
                  "labelPosition": "top",
                  "widget": "choicesjs",
                  "dataSrc": "url",
                  "data": {
                    "url": "AcademicPeriods",
                    "headers": []
                  },
                  "template": "{{ item.name }}",
                  "selectValues": "value",
                  "key": "declaredPeriod.name",
                  "type": "select",
                  "input": true,
                  "disabled": true,
                  "searchEnabled": false,
                  "validate": {
                    "required": false
                  }
                }
              ],
              "width": 4
            },
            {
              "components": [
                {
                  "label": "Declared Date",
                  "key": "declaredDate",
                  "labelPosition": "top",
                  "validate": {
                    "required": false
                  },
                  "input": true,
                  "type": "textfield",
                  "enableTime": false,
                  "type": "datetime",
                  "format": "dd/MM/yyyy",
                  "clearOnRefresh": true,
                  "disabled": true
                }
              ],
              "width": 4

            },
            {
              "components": [
                {
                  "label": "Graduation Grade",
                  "labelPosition": "top",
                  "widget": {
                    "type": "input"
                  },
                  "validate": {
                    "required": false
                  },
                  "key": "graduationGradeAdjusted",
                  "type": "textfield",
                  "input": true,
                  "disabled": true
                }
              ],
              "width": 4
            },
            {
              "components": [
                {
                  "label": "Action Status",
                  "labelPosition": "top",
                  "widget": "choicesjs",
                  "dataSrc": "url",
                  "data": {
                    "url": "ActionStatusTypes",
                    "headers": []
                  },
                  "template": "{{ item.alternateName }}",
                  "selectValues": "value",
                  "key": "actionStatus.alternateName",
                  "type": "select",
                  "input": true,
                  "disabled": true,
                  "searchEnabled": false,
                  "validate": {
                    "required": false
                  }
                }
              ],
              "width": 4
            }
          ],
          "customClass": "text-dark",
          "hideLabel": true,
          "type": "columns",
          "input": false
        }
      ]
    }
  ],
  "width": 3
}
